INDEX VERSION 1.131+C:\Users\tejparma\Documents\workspace-spring-tool-suite-4-4.3.1.RELEASE\.metadata\.plugins\org.eclipse.jdt.core
2111512668.index
3032694404.index
2205290751.index
2066241429.index
3624362335.index
715107097.index
3421819425.index
177638979.index
1296103107.index
1303184529.index
3579902010.index
745347899.index
2828169528.index
2686296187.index
1470870121.index
3104340509.index
1839899254.index
124558605.index
2605561000.index
1713172528.index
2624726496.index
2202167482.index
3745837425.index
1878908929.index
2288363753.index
